<svg width="22" height="22" viewBox="0 0 22 22" xmlns="http://www.w3.org/2000/svg">
<path d="M19.9763 18.7875H16.7847C16.6407 18.7875 16.506 18.7104 16.4306 18.5823L13.3776 13.5257L20.6321 1.24224C20.6879 1.14777 20.7039 1.03511 20.6765 0.928866C20.6491 0.82269 20.5808 0.731655 20.4863 0.675863L19.4392 0.0575107C19.2424 -0.058653 18.9889 0.00668111 18.8728 0.20332L12.1781 11.5391L11.9171 11.1069C11.8776 11.0415 11.8208 10.9883 11.7528 10.9532L10.9523 10.54L4.96544 0.353264C4.90984 0.258666 4.81893 0.190087 4.71275 0.162478C4.60664 0.134996 4.49385 0.150709 4.39919 0.206373L3.23271 0.892923C3.03601 1.0087 2.97029 1.26203 3.08595 1.45885L9.07837 11.655L9.09383 12.5379C9.09511 12.6106 9.11553 12.6816 9.153 12.7439L10.321 14.684L8.29659 18.1114C7.98811 18.6338 7.41957 18.9584 6.81286 18.9584H1.83487C1.35672 18.9584 0.967773 19.3471 0.967773 19.8249V21.1106C0.967773 21.5887 1.35672 21.9777 1.83487 21.9777H7.09405C7.89104 21.9777 8.63783 21.5512 9.04307 20.8647L11.5188 16.6734L14.228 21.1735C14.528 21.6833 15.0819 22.0001 15.6735 22.0001H19.9764C20.5587 22.0001 21.0326 21.5262 21.0326 20.9439V19.8437C21.0324 19.2612 20.5587 18.7875 19.9763 18.7875ZM15.9027 7.6238L15.6326 8.08121L15.3195 7.8464L15.5896 7.38899L15.9027 7.6238ZM16.0127 6.67254L16.2959 6.19307L16.609 6.42794L16.3258 6.90735L16.0127 6.67254ZM19.3746 0.979886L19.7097 1.17767L17.032 5.71143L16.7189 5.47662L19.3746 0.979886ZM14.8963 8.56278L15.2094 8.79759L12.892 12.7215L12.6636 12.3433L14.8963 8.56278ZM4.00833 1.39607L4.46204 1.12907L9.99948 10.551L9.56396 10.849L4.00833 1.39607ZM3.79235 19.7854V21.1506H3.2198V19.7854H3.79235ZM1.79479 21.1106V19.8249C1.79479 19.8031 1.81279 19.7854 1.83487 19.7854H2.39278V21.1506H1.83487C1.81279 21.1506 1.79479 21.1326 1.79479 21.1106ZM8.33088 20.4442C8.07368 20.88 7.59973 21.1506 7.09405 21.1506H4.61936V19.7854H6.81286C7.71081 19.7854 8.5522 19.3051 9.00871 18.5319L10.8058 15.4892L11.0339 15.8681L8.33088 20.4442ZM14.9386 20.7504L9.91875 12.4124L9.90482 11.6178L10.4777 11.2258L11.2695 11.6346L15.7201 19.0059C15.9411 19.3813 16.349 19.6146 16.7846 19.6146H18.5781V21.173H15.6734C15.3735 21.173 15.0928 21.0124 14.9386 20.7504ZM20.2054 20.9438C20.2054 21.0702 20.1026 21.173 19.9763 21.173H19.4051V19.6145H19.9763C20.1026 19.6145 20.2054 19.7173 20.2054 19.8436V20.9438Z" />
</svg>
