<svg width="24" height="24" viewBox="0 0 24 24" xmlns="http://www.w3.org/2000/svg">
<path d="M22.2386 1.90653C21.4037 1.07163 20.3038 0.533418 19.0579 0.350078C17.947 0.186534 16.7417 0.307292 15.556 0.69824C15.0682 0.247456 14.4384 0 13.7704 0C13.0668 0 12.4054 0.274021 11.908 0.771487C11.4105 1.26895 11.1365 1.93035 11.1365 2.63395C11.1365 2.93984 11.1885 3.23768 11.2879 3.51757C9.92482 5.01367 9.0553 6.81585 8.82254 8.63259L8.82126 8.63138L8.46288 11.559C8.1939 13.7562 7.20395 15.8478 5.67548 17.4488L5.5316 17.5995L5.52151 17.5894C5.3595 17.4273 5.09665 17.4273 4.93451 17.5894L0.253995 22.2699C0.0919195 22.432 0.0919195 22.6948 0.254059 22.8569L1.27556 23.8784C1.35346 23.9563 1.45902 24 1.56912 24C1.67921 24 1.78477 23.9563 1.86262 23.8784L6.54307 19.198C6.62098 19.1201 6.66466 19.0145 6.66466 18.9045C6.66466 18.7944 6.62092 18.6888 6.54307 18.611L6.5243 18.5922C8.23241 16.8596 10.4929 15.7839 12.9216 15.5547L14.7442 15.3827C14.9868 15.3761 15.2333 15.3578 15.4829 15.3268C17.4659 15.0799 19.4222 14.0797 20.9915 12.5105C22.5609 10.941 23.5612 8.98459 23.8082 7.00143C24.0601 4.97964 23.5026 3.17018 22.2386 1.90653ZM1.56905 22.9979L1.13449 22.5634L5.22788 18.4699L5.66251 18.9045L1.56905 22.9979ZM15.277 3.6262C15.0611 3.32331 14.9443 2.96212 14.9443 2.58267C14.9443 2.22448 15.0482 1.88239 15.2415 1.59036C15.4573 1.89324 15.5741 2.2545 15.5741 2.63389C15.5741 2.99207 15.4702 3.33417 15.277 3.6262ZM14.6141 1.03887C14.2897 1.48518 14.1141 2.02032 14.1141 2.58273C14.1141 3.17573 14.3095 3.73834 14.6685 4.19844C14.3982 4.3542 14.0908 4.43766 13.7704 4.43766C13.4711 4.43766 13.1828 4.36512 12.9257 4.22852C13.6744 3.29438 13.6934 1.96489 12.9827 1.01077C13.2251 0.892884 13.493 0.830301 13.7704 0.830301C14.0694 0.830174 14.3572 0.90259 14.6141 1.03887ZM12.3389 1.53691C12.7954 2.17767 12.7827 3.05178 12.3009 3.67965C12.084 3.37632 11.9667 3.01423 11.9667 2.63389C11.9667 2.23195 12.0977 1.85033 12.3389 1.53691ZM9.23366 12.0368C9.5059 12.6813 9.89269 13.2618 10.388 13.7571C10.8464 14.2156 11.3769 14.5805 11.9629 14.8481C10.2392 15.15 8.61736 15.849 7.22222 16.8869C8.26083 15.4574 8.95766 13.7844 9.23366 12.0368ZM22.9844 6.89887C22.7601 8.69958 21.8439 10.4841 20.4044 11.9235C18.9652 13.3627 17.181 14.2788 15.3803 14.503C13.6183 14.7224 12.0537 14.249 10.975 13.1701C9.91568 12.111 9.43865 10.5768 9.63202 8.85023C9.81159 7.24659 10.5471 5.64288 11.7176 4.28389C11.777 4.35745 11.8402 4.42853 11.908 4.49635C12.4054 4.99381 13.0668 5.26783 13.7704 5.26783C14.474 5.26783 15.1354 4.99381 15.6328 4.49635C16.1303 3.99888 16.4043 3.33749 16.4043 2.63395C16.4043 2.19626 16.2981 1.77491 16.0982 1.39916C18.2709 0.765803 20.318 1.16001 21.6517 2.49365C22.7305 3.57224 23.2039 5.13673 22.9844 6.89887Z" />
</svg>
