<svg width="12" height="12" viewBox="0 0 12 12" fill="none" xmlns="http://www.w3.org/2000/svg">
<path d="M4.00033 7.33329L0.666992 3.99996L4.00033 0.666626" stroke="#546AB7" stroke-linecap="round" stroke-linejoin="round"/>
<path d="M11.3337 11.3333V6.66667C11.3337 5.95942 11.0527 5.28115 10.5526 4.78105C10.0525 4.28095 9.37423 4 8.66699 4H0.666992" stroke="#546AB7" stroke-linecap="round" stroke-linejoin="round"/>
</svg>
