<svg width="20" height="20" viewBox="0 0 20 20" fill="none" xmlns="http://www.w3.org/2000/svg">
<path d="M19 19L1 1" stroke="#414150" stroke-width="2" stroke-linecap="round" stroke-linejoin="round"/>
<path d="M19 1L1 19" stroke="#414150" stroke-width="2" stroke-linecap="round" stroke-linejoin="round"/>
</svg>
